﻿Connected, SSID,Signal(dBm),Network Mode, Default Encryption,Default Auth, Vendor, BSSID, Channel, Frequency, Network Type, Adapter Description
False,Mikel Office,-42,802.11n,AES-CCMP,WPA2/PSK,Unknown,2A:A4:3C:65:62:F6,11,2462,Access Point,Intel(R) Centrino(R) Wireless-N 130
True,Mikel Guest Internet,-44,802.11n,AES-CCMP,WPA2/PSK,Unknown,2E:A4:3C:65:62:F6,11,2462,Access Point,Intel(R) Centrino(R) Wireless-N 130
False,Mikel,-54,802.11b,WEP,Open,Unknown,DC:9F:DB:A4:F0:0A,1,2412,Access Point,Intel(R) Centrino(R) Wireless-N 130
False,korai,-60,802.11n,AES-CCMP,WPA2/PSK,Mannesmann Ipulsys,14:60:80:88:36:10,12, 8,2467,Access Point,Intel(R) Centrino(R) Wireless-N 130
False,CINNABON,-68,802.11n,None,Open,Handlink,00:90:0E:02:1A:92,6,2437,Access Point,Intel(R) Centrino(R) Wireless-N 130
False,STASY_HOLSPOT,-72,802.11n,None,Open,Unknown,80:C1:6E:02:39:70,1,2412,Access Point,Intel(R) Centrino(R) Wireless-N 130
False,<Non-broadcasted>,-72,802.11n,AES-CCMP,WPA2/PSK,Unknown,24:A4:3C:96:CD:E5,13,2472,Access Point,Intel(R) Centrino(R) Wireless-N 130
False,SEMELIWINES,-77,802.11n,AES-CCMP,WPA2/PSK,Unknown,E4:8D:8C:A8:BA:ED,4, 8,2427,Access Point,Intel(R) Centrino(R) Wireless-N 130
False,MYKONOS GRILL 2,-81,802.11n,AES-CCMP,WPA2/PSK,Unknown,14:CC:20:EB:10:FF,6, 2,2437,Access Point,Intel(R) Centrino(R) Wireless-N 130
False,SILVIO,-81,802.11g,WEP,Open,Motorola,00:23:68:94:2B:C0,1,2412,Access Point,Intel(R) Centrino(R) Wireless-N 130
False,EurolifeWireless,-83,802.11n,AES-CCMP,WPA2/PSK,Unknown,2C:44:FD:A5:B4:12,1,2412,Access Point,Intel(R) Centrino(R) Wireless-N 130
False,Piraeus_free_wifi,-84,802.11n,None,Open,Unknown,6E:72:51:2C:74:66,6,2437,Access Point,Intel(R) Centrino(R) Wireless-N 130
False,Guest access,-89,802.11n,AES-CCMP,WPA2/PSK,Unknown,2C:44:FD:A5:B4:13,1,2412,Access Point,Intel(R) Centrino(R) Wireless-N 130
False,MYKONOS GRILL 1,-89,802.11n,AES-CCMP,WPA2/PSK,Unknown,D4:21:22:36:9D:A9,9,2452,Access Point,Intel(R) Centrino(R) Wireless-N 130

